2015-09-01 23:41:59,131 [main] INFO  org.springframework.beans.factory.xml.XmlBeanDefinitionReader - Loading XML bean definitions from file [D:\JavaProjects\springapp\target\classes\META-INF\spring\applicationContext.xml]
2015-09-01 23:41:59,405 [main] INFO  org.springframework.context.support.GenericApplicationContext - Refreshing org.springframework.context.support.GenericApplicationContext@68bbe345: startup date [Tue Sep 01 23:41:59 GST 2015]; root of context hierarchy
2015-09-01 23:41:59,501 [main] INFO  org.springframework.context.support.PropertySourcesPlaceholderConfigurer - Loading properties file from file [D:\JavaProjects\springapp\target\classes\META-INF\spring\database.properties]
2015-09-01 23:41:59,628 [main] INFO  org.springframework.orm.jpa.LocalContainerEntityManagerFactoryBean - Building JPA container EntityManagerFactory for persistence unit 'persistenceUnit'
2015-09-01 23:42:01,581 [main] ERROR org.hibernate.tool.hbm2ddl.SchemaExport - HHH000389: Unsuccessful: alter table speaker_talks drop foreign key FK_7e23aoqvqmeve8deso5b5uxvj
2015-09-01 23:42:01,581 [main] ERROR org.hibernate.tool.hbm2ddl.SchemaExport - Table 'springapp.speaker_talks' doesn't exist
2015-09-01 23:42:01,582 [main] ERROR org.hibernate.tool.hbm2ddl.SchemaExport - HHH000389: Unsuccessful: alter table speaker_talks drop foreign key FK_caecnn3xotfqbsc5g1a2pyvl
2015-09-01 23:42:01,582 [main] ERROR org.hibernate.tool.hbm2ddl.SchemaExport - Table 'springapp.speaker_talks' doesn't exist
2015-09-01 23:42:01,583 [main] ERROR org.hibernate.tool.hbm2ddl.SchemaExport - HHH000389: Unsuccessful: alter table talk drop foreign key FK_j9fq65wcg4l7qvv3064qm5bkd
2015-09-01 23:42:01,583 [main] ERROR org.hibernate.tool.hbm2ddl.SchemaExport - Table 'springapp.talk' doesn't exist
2015-09-01 23:42:02,625 [main] INFO  org.springframework.beans.factory.support.DefaultListableBeanFactory - Pre-instantiating singletons in org.springframework.beans.factory.support.DefaultListableBeanFactory@1622f1b: defining beans [org.springframework.context.support.PropertySourcesPlaceholderConfigurer#0,org.springframework.context.config.internalBeanConfigurerAspect,speakerDataOnDemand,talkDataOnDemand,org.springframework.context.annotation.internalConfigurationAnnotationProcessor,org.springframework.context.annotation.internalAutowiredAnnotationProcessor,org.springframework.context.annotation.internalRequiredAnnotationProcessor,org.springframework.context.annotation.internalCommonAnnotationProcessor,org.springframework.context.annotation.internalPersistenceAnnotationProcessor,dataSource,transactionManager,org.springframework.transaction.config.internalTransactionAspect,entityManagerFactory,org.springframework.context.annotation.ConfigurationClassPostProcessor.importAwareProcessor]; root of factory hierarchy
2015-09-01 23:42:02,951 [main] INFO  org.springframework.test.context.transaction.TransactionalTestExecutionListener - Began transaction (1): transaction manager [org.springframework.orm.jpa.JpaTransactionManager@11841b15]; rollback [true]
2015-09-01 23:42:03,614 [main] INFO  org.springframework.test.context.transaction.TransactionalTestExecutionListener - Rolled back transaction after test execution for test context [TestContext@4e92466a testClass = SpeakerIntegrationTest, testInstance = ru.it_master.springapp.domain.SpeakerIntegrationTest@66e8997c, testMethod = testFindSpeaker@SpeakerIntegrationTest, testException = [null], mergedContextConfiguration = [MergedContextConfiguration@6f0cb5a1 testClass = SpeakerIntegrationTest, locations = '{classpath*:/META-INF/spring/applicationContext*.xml}', classes = '{}', contextInitializerClasses = '[]', activeProfiles = '{}', contextLoader = 'org.springframework.test.context.support.DelegatingSmartContextLoader', parent = [null]]]
2015-09-01 23:42:03,618 [main] INFO  org.springframework.test.context.transaction.TransactionalTestExecutionListener - Began transaction (2): transaction manager [org.springframework.orm.jpa.JpaTransactionManager@11841b15]; rollback [true]
2015-09-01 23:42:03,658 [main] INFO  org.springframework.test.context.transaction.TransactionalTestExecutionListener - Rolled back transaction after test execution for test context [TestContext@4e92466a testClass = SpeakerIntegrationTest, testInstance = ru.it_master.springapp.domain.SpeakerIntegrationTest@f3fcd59, testMethod = testFlush@SpeakerIntegrationTest, testException = [null], mergedContextConfiguration = [MergedContextConfiguration@6f0cb5a1 testClass = SpeakerIntegrationTest, locations = '{classpath*:/META-INF/spring/applicationContext*.xml}', classes = '{}', contextInitializerClasses = '[]', activeProfiles = '{}', contextLoader = 'org.springframework.test.context.support.DelegatingSmartContextLoader', parent = [null]]]
2015-09-01 23:42:03,663 [main] INFO  org.springframework.test.context.transaction.TransactionalTestExecutionListener - Began transaction (3): transaction manager [org.springframework.orm.jpa.JpaTransactionManager@11841b15]; rollback [true]
2015-09-01 23:42:04,393 [main] INFO  org.springframework.test.context.transaction.TransactionalTestExecutionListener - Rolled back transaction after test execution for test context [TestContext@4e92466a testClass = SpeakerIntegrationTest, testInstance = ru.it_master.springapp.domain.SpeakerIntegrationTest@9fec931, testMethod = testCountSpeakers@SpeakerIntegrationTest, testException = [null], mergedContextConfiguration = [MergedContextConfiguration@6f0cb5a1 testClass = SpeakerIntegrationTest, locations = '{classpath*:/META-INF/spring/applicationContext*.xml}', classes = '{}', contextInitializerClasses = '[]', activeProfiles = '{}', contextLoader = 'org.springframework.test.context.support.DelegatingSmartContextLoader', parent = [null]]]
2015-09-01 23:42:04,395 [main] INFO  org.springframework.test.context.transaction.TransactionalTestExecutionListener - Began transaction (4): transaction manager [org.springframework.orm.jpa.JpaTransactionManager@11841b15]; rollback [true]
2015-09-01 23:42:04,424 [main] INFO  org.springframework.test.context.transaction.TransactionalTestExecutionListener - Rolled back transaction after test execution for test context [TestContext@4e92466a testClass = SpeakerIntegrationTest, testInstance = ru.it_master.springapp.domain.SpeakerIntegrationTest@7a5b769b, testMethod = testPersist@SpeakerIntegrationTest, testException = [null], mergedContextConfiguration = [MergedContextConfiguration@6f0cb5a1 testClass = SpeakerIntegrationTest, locations = '{classpath*:/META-INF/spring/applicationContext*.xml}', classes = '{}', contextInitializerClasses = '[]', activeProfiles = '{}', contextLoader = 'org.springframework.test.context.support.DelegatingSmartContextLoader', parent = [null]]]
2015-09-01 23:42:04,426 [main] INFO  org.springframework.test.context.transaction.TransactionalTestExecutionListener - Began transaction (5): transaction manager [org.springframework.orm.jpa.JpaTransactionManager@11841b15]; rollback [true]
2015-09-01 23:42:04,428 [main] INFO  org.springframework.test.context.transaction.TransactionalTestExecutionListener - Rolled back transaction after test execution for test context [TestContext@4e92466a testClass = SpeakerIntegrationTest, testInstance = ru.it_master.springapp.domain.SpeakerIntegrationTest@7a7d1b47, testMethod = testMarkerMethod@SpeakerIntegrationTest, testException = [null], mergedContextConfiguration = [MergedContextConfiguration@6f0cb5a1 testClass = SpeakerIntegrationTest, locations = '{classpath*:/META-INF/spring/applicationContext*.xml}', classes = '{}', contextInitializerClasses = '[]', activeProfiles = '{}', contextLoader = 'org.springframework.test.context.support.DelegatingSmartContextLoader', parent = [null]]]
2015-09-01 23:42:04,429 [main] INFO  org.springframework.test.context.transaction.TransactionalTestExecutionListener - Began transaction (6): transaction manager [org.springframework.orm.jpa.JpaTransactionManager@11841b15]; rollback [true]
2015-09-01 23:42:04,462 [main] INFO  org.springframework.test.context.transaction.TransactionalTestExecutionListener - Rolled back transaction after test execution for test context [TestContext@4e92466a testClass = SpeakerIntegrationTest, testInstance = ru.it_master.springapp.domain.SpeakerIntegrationTest@4f824872, testMethod = testFindAllSpeakers@SpeakerIntegrationTest, testException = [null], mergedContextConfiguration = [MergedContextConfiguration@6f0cb5a1 testClass = SpeakerIntegrationTest, locations = '{classpath*:/META-INF/spring/applicationContext*.xml}', classes = '{}', contextInitializerClasses = '[]', activeProfiles = '{}', contextLoader = 'org.springframework.test.context.support.DelegatingSmartContextLoader', parent = [null]]]
2015-09-01 23:42:04,464 [main] INFO  org.springframework.test.context.transaction.TransactionalTestExecutionListener - Began transaction (7): transaction manager [org.springframework.orm.jpa.JpaTransactionManager@11841b15]; rollback [true]
2015-09-01 23:42:04,493 [main] INFO  org.springframework.test.context.transaction.TransactionalTestExecutionListener - Rolled back transaction after test execution for test context [TestContext@4e92466a testClass = SpeakerIntegrationTest, testInstance = ru.it_master.springapp.domain.SpeakerIntegrationTest@3fd2322d, testMethod = testMergeUpdate@SpeakerIntegrationTest, testException = [null], mergedContextConfiguration = [MergedContextConfiguration@6f0cb5a1 testClass = SpeakerIntegrationTest, locations = '{classpath*:/META-INF/spring/applicationContext*.xml}', classes = '{}', contextInitializerClasses = '[]', activeProfiles = '{}', contextLoader = 'org.springframework.test.context.support.DelegatingSmartContextLoader', parent = [null]]]
2015-09-01 23:42:04,495 [main] INFO  org.springframework.test.context.transaction.TransactionalTestExecutionListener - Began transaction (8): transaction manager [org.springframework.orm.jpa.JpaTransactionManager@11841b15]; rollback [true]
2015-09-01 23:42:04,522 [main] INFO  org.springframework.test.context.transaction.TransactionalTestExecutionListener - Rolled back transaction after test execution for test context [TestContext@4e92466a testClass = SpeakerIntegrationTest, testInstance = ru.it_master.springapp.domain.SpeakerIntegrationTest@7c75db8b, testMethod = testFindSpeakerEntries@SpeakerIntegrationTest, testException = [null], mergedContextConfiguration = [MergedContextConfiguration@6f0cb5a1 testClass = SpeakerIntegrationTest, locations = '{classpath*:/META-INF/spring/applicationContext*.xml}', classes = '{}', contextInitializerClasses = '[]', activeProfiles = '{}', contextLoader = 'org.springframework.test.context.support.DelegatingSmartContextLoader', parent = [null]]]
2015-09-01 23:42:04,524 [main] INFO  org.springframework.test.context.transaction.TransactionalTestExecutionListener - Began transaction (9): transaction manager [org.springframework.orm.jpa.JpaTransactionManager@11841b15]; rollback [true]
2015-09-01 23:42:04,576 [main] INFO  org.springframework.test.context.transaction.TransactionalTestExecutionListener - Rolled back transaction after test execution for test context [TestContext@4e92466a testClass = SpeakerIntegrationTest, testInstance = ru.it_master.springapp.domain.SpeakerIntegrationTest@3f1ddac2, testMethod = testRemove@SpeakerIntegrationTest, testException = [null], mergedContextConfiguration = [MergedContextConfiguration@6f0cb5a1 testClass = SpeakerIntegrationTest, locations = '{classpath*:/META-INF/spring/applicationContext*.xml}', classes = '{}', contextInitializerClasses = '[]', activeProfiles = '{}', contextLoader = 'org.springframework.test.context.support.DelegatingSmartContextLoader', parent = [null]]]
